atRium Training School - Introduction to R
…
Mutate

function mutate creates a new variable and adds it to the most recent dataframe

df_darts_edit %>% 
  group_by(dart_type) %>% 
  mutate(
    mean_weight = round(mean(dart_weight),2)
  )

# A tibble: 91 × 6
# Groups:   dart_type [5]
   dart_type  dart_ID dart_length dart_width dart_weight mean_weight
   <chr>      <chr>         <dbl>      <dbl>       <dbl>       <dbl>
 1 Pedernales 35-2855       110.        49.3        28.8       10.6 
 2 Pedernales 36-3879        84         21.2         9.3       10.6 
 3 Pedernales 35-0173        78.3       28.1        14.8       10.6 
 4 Pedernales 38-0098        70.4       30.4        13.1       10.6 
 5 Travis     43-0112        69         20.9        11.4        8.59
 6 Pedernales 41-0239        67.2       27.1        15.3       10.6 
 7 Pedernales 35-2391        66         27.2        12.5       10.6 
 8 Wells      36-3088        65.4       25.1        12.6        8.68
 9 Pedernales 43-0110        65         31.6         4.6       10.6 
10 Travis     36-0006        64.6       21.5        15          8.59
# ℹ 81 more rows
…
